<?xml version="1.0"?>
<!-- j2n6s300 refers to jaco v2 6DOF non-spherical 3fingers -->


<robot xmlns:xi="http://www.w3.org/2001/XInclude"
	xmlns:gazebo="http://playerstage.sourceforge.net/gazebo/xmlschema/#gz"
    xmlns:model="http://playerstage.sourceforge.net/gazebo/xmlschema/#model"
	xmlns:sensor="http://playerstage.sourceforge.net/gazebo/xmlschema/#sensor"
	xmlns:body="http://playerstage.sourceforge.net/gazebo/xmlschema/#body"
    xmlns:geom="http://playerstage.sourceforge.net/gazebo/xmlschema/#geom"
    xmlns:joint="http://playerstage.sourceforge.net/gazebo/xmlschema/#joint"
	xmlns:controller="http://playerstage.sourceforge.net/gazebo/xmlschema/#controller"
	xmlns:interface="http://playerstage.sourceforge.net/gazebo/xmlschema/#interface"
	xmlns:rendering="http://playerstage.sourceforge.net/gazebo/xmlschema/#rendering"
    xmlns:renderable="http://playerstage.sourceforge.net/gazebo/xmlschema/#renderable"
    xmlns:physics="http://playerstage.sourceforge.net/gazebo/xmlschema/#physics"
	xmlns:xacro="http://ros.org/wiki/xacro" name="j2n6s300">


  <xacro:include filename="$(find j2n6s300_description)/urdf/j2n6s300.xacro"/>

  <link name="root">
    <visual>
      <origin xyz="0 0 0" rpy="0 0 0" />
      <geometry>
        <box size = "0.0001 0.0001 0.0001"/>
      </geometry>
    <!--<material name="Black" /> -->
    </visual>

    <collision>
      <origin xyz="0 0 0" rpy="0 0 0" />
      <geometry>
        <box size = "0.0001 0.0001 0.0001"/> 
      </geometry>
    </collision>     
  </link>

  <link name="vineyard_cables_box">
    <visual>
      <origin xyz="0.7 0 0.7" rpy="0 0 0" />
      <geometry>
        <box size = "0.1 1 0.05"/>
      </geometry>
    </visual>
    <collision>
      <origin xyz="0.7 0 0.7" rpy="0 0 0" />
      <geometry>
        <box size = "0.1 1 0.05"/>
      </geometry>
    </collision>     
  </link>

  <joint name="connect_vineyard_cables_box_and_husky" type="fixed">
    <child link="vineyard_cables_box" />
    <parent link="husky_collision_box" />
    <origin xyz="0 0 0" rpy="0 0 0" />    
  </joint> 


  <link name="husky_collision_box">
    <visual>
      <origin xyz="-0.40 0.0 -0.24" rpy="0 0 0" />
      <geometry>
        <box size = "0.8 1.0 0.45"/>
      </geometry>
    </visual>
    <collision>
      <origin xyz="-0.40 0.0 -0.24" rpy="0 0 0" />
      <geometry>
        <box size = "0.8 1.0 0.45"/> 
      </geometry>
    </collision>     
  </link>

  <joint name="connect_husky_collision_box_and_base_arm" type="fixed">
    <child link="husky_collision_box" />
    <parent link="base_arm" />
    <origin xyz="0 0 0" rpy="0 0 0" />    
  </joint> 


  <link name="antenna_collision_box_1">
    <visual>
      <material name="Green">
        <color rgba="0 1.0 0 1.0"/>
      </material>
      <origin xyz="-0.55 0.14 0.17" rpy="0 0 0" />
      <geometry>
        <box size = "0.07 0.26 0.35"/>
      </geometry>
    </visual>

    <collision>
      <origin xyz="-0.55 0.14 0.17" rpy="0 0 0" />
      <geometry>
        <box size = "0.07 0.26 0.35"/> 
      </geometry>
    </collision>     
  </link>

  <joint name="connect_antenna_collision_box_1_and_base_arm" type="fixed">
    <child link="antenna_collision_box_1" />
    <parent link="base_arm" />
    <origin xyz="0 0 0" rpy="0 0 0" />    
  </joint> 


  <link name="antenna_collision_box_2">
    <visual>
      <material name="Green">
        <color rgba="0 1.0 0 1.0"/>
      </material>
      <origin xyz="-0.45 0.25 0.17" rpy="0 0 1.57" />
      <geometry>
        <box size = "0.07 0.26 0.35"/>
      </geometry>
    </visual>

    <collision>
      <origin xyz="-0.45 0.25 0.17" rpy="0 0 1.57" />
      <geometry>
        <box size = "0.07 0.26 0.35"/> 
      </geometry>
    </collision>     
  </link>

  <joint name="connect_antenna_collision_box_2_and_base_arm" type="fixed">
    <child link="antenna_collision_box_2" />
    <parent link="base_arm" />
    <origin xyz="0 0 0" rpy="0 0 0" />    
  </joint> 


  <link name="antenna_collision_box_3">
    <visual>
      <material name="Green">
        <color rgba="0 1.0 0 1.0"/>
      </material>
      <origin xyz="-0.46 0.16 0.47" rpy="0 0 0" />
      <geometry>
        <box size = "0.25 0.25 0.25"/>
      </geometry>
    </visual>

    <collision>
      <origin xyz="-0.46 0.16 0.47" rpy="0 0 0" />
      <geometry>
        <box size = "0.25 0.25 0.25"/> 
      </geometry>
    </collision>     
  </link>

  <joint name="connect_antenna_collision_box_3_and_base_arm" type="fixed">
    <child link="antenna_collision_box_3" />
    <parent link="base_arm" />
    <origin xyz="0 0 0" rpy="0 0 0" />    
  </joint> 






  <link name="nav_laser_collision_box">
    <visual>
      <material name="Cyan">
        <color rgba="0 1.0 1.0 1.0"/>
      </material>
      <origin xyz="-0.35 -0.35 0.05" rpy="0 0 0" />
      <geometry>
        <box size = "0.12 0.12 0.10"/>
      </geometry>
    </visual>

    <collision>
      <origin xyz="-0.35 -0.35 0.05" rpy="0 0 0" />
      <geometry>
        <box size = "0.12 0.12 0.10"/> 
      </geometry>
    </collision>     
  </link>

  <joint name="connect_nav_laser_collision_box_and_base_arm" type="fixed">
    <child link="nav_laser_collision_box" />
    <parent link="base_arm" />
    <origin xyz="0 0 0" rpy="0 0 0" />    
  </joint> 

  <!-- for gazebo -->
  <link name="base_arm"/>
  
  <joint name="connect_root_and_base_arm" type="fixed">
    <child link="root" />
    <parent link="base_arm" />
    <origin xyz="0 0 0" rpy="0 0 0" />    
  </joint> 

  <property name="robot_root" value="root" />

  <xacro:j2n6s300  base_parent="${robot_root}"/>

</robot>
